fill ~-1 ~-1 ~-1 ~1 ~-1 ~1 glowstone
fill ~-1 ~ ~-1 ~1 ~1 ~1 air
setblock ~ ~ ~ command_block{Command:"execute if entity @p[scores={sc_challengesPassed=1..}] run function sc_revival:revive"}
setblock ~ ~1 ~ stone_button[face=floor]
advancement grant @a only sc_challenges:root