{
	"parent": "sc_challenges:crafting/root",
	"criteria": {
		"prepared_cloak": {
			"conditions": {
				"potion": "long_invisibility",
                "player": {
                    "type_specific": {
                        "type": "player",
                        "advancements": {
                            "sc_challenges:root": true
                        }
                    }
                }
			},
			"trigger": "minecraft:brewed_potion"
		}
	},
	"display": {
		"announce_to_chat": true,
		"description": {
			"text": "Brew an extended potion of invisibility"
		},
		"frame": "challenge",
		"hidden": false,
		"icon": {
			"item": "minecraft:brewing_stand"
		},
		"show_toast": true,
		"title": {
			"text": "Prepare the cloak"
		}
	},
	"rewards": {
        "function": "sc_challenges:challenge_complete"
	}
}