{
	"parent": "sc_challenges:mining/root",
	"criteria": {
		"woolpocalypse": {
			"conditions": {
				"items": [
                    {"items": ["minecraft:stone"]},
                    {"items": ["minecraft:deepslate"]},
                    {"items": ["minecraft:tuff"]},
                    {"items": ["minecraft:granite"]},
                    {"items": ["minecraft:diorite"]},
                    {"items": ["minecraft:andesite"]}
                ],
                "player": {
                    "type_specific": {
                        "type": "player",
                        "advancements": {
                            "sc_challenges:root": true
                        }
                    }
                }
			},
			"trigger": "minecraft:inventory_changed"
		}
	},
	"display": {
		"announce_to_chat": true,
		"description": {
			"text": "Hold every natural stone block in your inventory at once"
		},
		"frame": "challenge",
		"hidden": false,
		"icon": {
			"item": "minecraft:stone_pickaxe"
		},
		"show_toast": true,
		"title": {
			"text": "Getting Stoned"
		}
	},
	"rewards": {
        "function": "sc_challenges:challenge_complete"
	}
}